Workflow for building APD
…
Smoke-tests / example sparql queries

# how many unique predicates?
sparql <-
'SELECT DISTINCT ?p
 WHERE { ?s ?p ?c . }
'
rdf_query(true_triples, sparql)

# A tibble: 37 × 1
   p                                                    
   <chr>                                                
 1 https://w3id.org/uom/UCUM_code                       
 2 http://purl.org/dc/terms/description                 
 3 http://purl.org/dc/terms/identifier                  
 4 http://www.w3.org/2004/02/skos/core#example          
 5 http://www.w3.org/2004/02/skos/core#broader          
 6 http://www.w3.org/2004/02/skos/core#prefLabel        
 7 http://terminologies.gfbio.org/terms/ETS/valueType   
 8 http://terminologies.gfbio.org/terms/ETS/expectedUnit
 9 http://www.w3.org/2004/02/skos/core#inScheme         
10 http://semanticscience.org/resource/SIO_000147       
# ℹ 27 more rows
…
unescape_unicode <- function(x) {
  stringi::stri_unescape_unicode(gsub("<U\\+(....)>", "\\\\u\\1", x))
}

rdf_query(true_triples, sparql) %>%
  mutate(prefLabel = unescape_unicode(prefLabel))

# A tibble: 26 × 2
   orcid                                 prefLabel         
   <chr>                                 <chr>             
 1 https://orcid.org/0000-0001-8305-3236 Hervé Sauquet     
 2 https://orcid.org/0000-0002-9699-2272 David Ellsworth   
 3 https://orcid.org/0000-0002-1773-6597 David Coleman     
 4 https://orcid.org/0000-0002-0712-5143 Lily Dun          
 5 https://orcid.org/0000-0003-1116-9402 Patricia Lu-Irving
 6 https://orcid.org/0000-0003-3568-2606 Andy Leigh        
 7 https://orcid.org/0000-0002-6033-2766 Gregory J. Jordan 
 8 https://orcid.org/0000-0003-2008-7062 Peter Vesk        
 9 https://orcid.org/0000-0001-8338-9143 Ian J. Wright     
10 https://orcid.org/0000-0003-0360-8321 Russell Barrett   
# ℹ 16 more rows

# how many unique references are in the data?
sparql <-
  'SELECT DISTINCT ?id
 WHERE { ?s <http://purl.org/dc/terms/references> ?id .
       }
'
rdf_query(true_triples, sparql)

# A tibble: 115 × 1
   id                                                                           
   <chr>                                                                        
 1 https://doi.org/10.1017/S0960258510000267                                    
 2 https://doi.org/10.1111/j.1654-1103.2012.01434.x                             
 3 https://doi.org/10.1111/j.1365-2745.2007.01302.x                             
 4 https://doi.org/10.1086/670400                                               
 5 https://uol.de/en/landeco/research/leda/standards                            
 6 https://books.google.com/books?vid=ISBN9780128126288                         
 7 https://books.google.com/books?vid=ISBN0521262968                            
 8 https://scholar.google.com/citations?view_op=view_citation&hl=en&user=Z8v6xP…
 9 https://www.worldbotanical.com/fruit_types.htm                               
10 https://books.google.com/books?vid=ISBN1842464221                            
# ℹ 105 more rows
…
